{
    "KPlugin": {
        "Description": "Manage your code snippets or download new ones",
        "Description[az]": "Kod fraqmentlərini idarə edin və yenilərini endirin",
        "Description[bg]": "Управлявайте фрагментите си с код или изтегляйте нови",
        "Description[ca@valencia]": "Gestiona els fragments de codi o en baixa de nous",
        "Description[ca]": "Gestiona els retalls de codi o en baixa de nous",
        "Description[cs]": "Spravujte vaše ústřižky kódu nebo si stáhněte nové",
        "Description[de]": "Verwaltung Ihrer Textbausteine oder Herunterladen neuer Textbausteine",
        "Description[el]": "Διαχείριση αποσπασμάτων κώδικα ή λήψη νέων",
        "Description[en_GB]": "Manage your code snippets or download new ones",
        "Description[eo]": "Administru viajn kodajn fragmentojn aŭ elŝutu novajn",
        "Description[es]": "Gestión de fragmentos de código y descarga de otros nuevos",
        "Description[eu]": "Kudeatu zure kodearen testu-zatiak edo berriak zama-jaitsi",
        "Description[fi]": "Hallitse koodikatkelmia ja lataa uusia",
        "Description[fr]": "Gérez vos fragments de code et téléchargez-en de nouveaux",
        "Description[gl]": "Xestione os seus fragmentos de código ou descargue novos.",
        "Description[hu]": "Kódrészletek kezelése és újak letöltése",
        "Description[ia]": "Gere tu fragmentos de codice o discarga alcu nove",
        "Description[ie]": "Gerer vor fragmentes de code o descargar li novis",
        "Description[it]": "Gestisce i tuoi frammenti di codice o ne scarica dei nuovi",
        "Description[ka]": "მართეთ თქვენი კოდის ფრაგმენტები ან ახლები გადმოწერეთ",
        "Description[ko]": "내 코드 스니펫을 관리하고 새로운 스니펫 다운로드",
        "Description[nl]": "Uw codefragmenten beheren of nieuwe downloaden",
        "Description[pl]": "Zarządzaj swoimi wycinkami kodu lub pobierz nowe",
        "Description[pt]": "Faça a gestão dos seus excertos de código ou transfira novos",
        "Description[ru]": "Управление фрагментами кода и загрузка новых фрагментов",
        "Description[sk]": "Spravujte svoje úryvky kódu alebo sťahujte nové",
        "Description[sl]": "Upravljaj z delčki kode ali prenesi nove delčke",
        "Description[sv]": "Hantera kodsnuttar eller ladda ner nya",
        "Description[tr]": "Kod parçacıklarınızı yönetin veya yenilerini indirin",
        "Description[uk]": "Керування фрагментами вашого коду та отримання фрагментів коду інших",
        "Description[vi]": "Quản lí các mảnh mã của bạn hoặc tải về những mảnh mã mới",
        "Description[x-test]": "xxManage your code snippets or download new onesxx",
        "Description[zh_CN]": "管理您的代码片段或下载新代码片段",
        "Icon": "document-new",
        "Name": "Snippets",
        "Name[az]": "Fraqmentlər",
        "Name[bg]": "Снипети",
        "Name[ca@valencia]": "Fragments",
        "Name[ca]": "Retalls",
        "Name[cs]": "Ústřižky",
        "Name[de]": "Textbausteine",
        "Name[en_GB]": "Snippets",
        "Name[eo]": "Fragmentoj",
        "Name[es]": "Fragmentos",
        "Name[eu]": "Testu-zatiak",
        "Name[fi]": "Katkelmat",
        "Name[fr]": "Fragments de code",
        "Name[gl]": "Fragmentos",
        "Name[ia]": "Fragmentos (Snippets)",
        "Name[it]": "Frammenti",
        "Name[ka]": "ფრაგმენტები",
        "Name[ko]": "스니펫",
        "Name[nl]": "Fragmenten",
        "Name[pl]": "Wstawki",
        "Name[pt]": "Excertos",
        "Name[ru]": "Фрагменты",
        "Name[sl]": "Delčki besedil",
        "Name[sv]": "Textsnuttar",
        "Name[tr]": "Kod Parçacıkları",
        "Name[uk]": "Фрагменти",
        "Name[vi]": "Mảnh mã",
        "Name[x-test]": "xxSnippetsxx",
        "Name[zh_CN]": "代码片段",
        "ServiceTypes": [
            "KTextEditor/Plugin",
            "KDevelop/Plugin"
        ]
    }
}
