{
    "KPlugin": {
        "Description": "Language Server Protocol Client",
        "Description[az]": "Language Server Protocol dəstəyi",
        "Description[bg]": "Клиент за Language Server Protocol",
        "Description[ca@valencia]": "Client del protocol de servidor de llenguatge",
        "Description[ca]": "Client del protocol de servidor de llenguatge",
        "Description[cs]": "Klient pro Language Server Protocol",
        "Description[de]": "Sprachserverprotokoll-Client",
        "Description[el]": "Εφαρμογή πρωτοκόλλου εξυπηρετητή γλώσσας",
        "Description[en_GB]": "Language Server Protocol Client",
        "Description[eo]": "Kliento de Lingvo-Servila Protokolo",
        "Description[es]": "Cliente del protocolo de servidor de lenguaje",
        "Description[eu]": "Lengoaia zerbitzari protokoloaren bezeroa",
        "Description[fi]": "Language Server Protocol -asiakas",
        "Description[fr]": "Client pour le protocole de serveur de langue",
        "Description[gl]": "Cliente do protocolo de servidor de linguaxes.",
        "Description[hu]": "Language Server Protocol kliens",
        "Description[ia]": "Language Server Protocol Client (Cliente de protocollo de servitor de linguage)",
        "Description[ie]": "Un cliente de Language Server Protocol",
        "Description[it]": "Client Language Server Protocol",
        "Description[ka]": "ენის სერვერის პროტოკოლის კლიენტი",
        "Description[ko]": "언어 서버 프로토콜 클라이언트",
        "Description[nl]": "Language Server Protocol Client",
        "Description[pl]": "Klient protokołu języka serwera",
        "Description[pt]": "Cliente do Protocolo LSP (Language Server Protocol)",
        "Description[ru]": "Клиент Language Server Protocol (протокол языкового сервера)",
        "Description[sk]": "Language Server Protocol Klient",
        "Description[sl]": "Odjemalec Language Server Protokola",
        "Description[sv]": "Klient för språkserverprotokollet (Language Server Protocol)",
        "Description[tr]": "Dil Sunucusu Protokolü İstemcisi",
        "Description[uk]": "Клієнт протоколу сервера мов (LSP)",
        "Description[vi]": "Trình khách Giao thức Trình chủ Ngôn ngữ",
        "Description[x-test]": "xxLanguage Server Protocol Clientxx",
        "Description[zh_CN]": "语言服务器协议客户端",
        "Name": "LSP Client",
        "Name[ar]": "عميل LSP",
        "Name[az]": "LSP müştərisi",
        "Name[bg]": "Клиент на LSP",
        "Name[ca@valencia]": "Client LSP",
        "Name[ca]": "Client LSP",
        "Name[cs]": "Klient LSP",
        "Name[de]": "LSP-CLient",
        "Name[el]": "Πελάτης LSP",
        "Name[en_GB]": "LSP Client",
        "Name[eo]": "LSP-kliento",
        "Name[es]": "Cliente LSP",
        "Name[eu]": "LSP bezeroa",
        "Name[fi]": "LSP-asiakas",
        "Name[fr]": "Client LSP",
        "Name[gl]": "Cliente de LSP",
        "Name[hu]": "LSP kliens",
        "Name[ia]": "Cliente LSP",
        "Name[ie]": "Cliente LSP",
        "Name[it]": "Client LSP",
        "Name[ka]": "LSP კლიენტი",
        "Name[ko]": "LSP 클라이언트",
        "Name[my]": "အယ်အက်စ်ပီ ပရိုဂရမ်",
        "Name[nl]": "LSP-client",
        "Name[pl]": "Klient LSP",
        "Name[pt]": "Cliente de LSP",
        "Name[pt_BR]": "Cliente LSP",
        "Name[ru]": "Клиент LSP",
        "Name[sk]": "LSP Klient",
        "Name[sl]": "Odjemalec LSP",
        "Name[sv]": "LSP-klient",
        "Name[tr]": "LSP İstemcisi",
        "Name[uk]": "Клієнт LSP",
        "Name[vi]": "Trình khách LSP",
        "Name[x-test]": "xxLSP Clientxx",
        "Name[zh_CN]": "LSP 客户端",
        "ServiceTypes": [
            "KTextEditor/Plugin"
        ]
    }
}
